<svg width="18" height="18" viewBox="0 0 18 18" fill="none" xmlns="http://www.w3.org/2000/svg">
<g opacity="0.5">
<path d="M1.125 2.8125L9 9L16.875 2.8125" stroke="#0F1B2B" stroke-miterlimit="10"/>
<path d="M15.75 2.25H2.25C1.31802 2.25 0.5625 3.00552 0.5625 3.9375V14.0625C0.5625 14.9945 1.31802 15.75 2.25 15.75H15.75C16.682 15.75 17.4375 14.9945 17.4375 14.0625V3.9375C17.4375 3.00552 16.682 2.25 15.75 2.25Z" stroke="#0F1B2B" stroke-miterlimit="10" stroke-linecap="square"/>
</g>
</svg>
